<?xml version="1.0" encoding="iso-8859-1" standalone="no"?> 
<?xml-stylesheet href="Dossier.css" type="text/css"?> 
<svg xmlns="http://www.w3.org/2000/svg" xmlns:xlink="http://www.w3.org/1999/xlink" width="304.92267pt" height="27.06186pt" viewBox="1981.49535 -10.19756 304.92267 27.06186 "> 
<g transform="translate(0, 16.8643 ) scale(1,-1) translate(0,10.19756 )"> 
<g stroke="#000" fill="#000">
 <g stroke-width="0.4">
 <g fill="#fff">
 <g fill="#fff">
 <path d=" M 1981.69534 -9.99756 h 19.99512 v 19.99512 h -19.99512 Z  " />
 </g>
 <g transform="translate(1988.33875,-3.41666)">
 <g fill="#000">
 <text style="stroke:none" transform="scale(1,-1) translate(3.35416,0)" text-anchor="middle"  font-size="10"> 
<g fill="#000">
 <g stroke="none"> <tspan font-family="cmmi" font-size="10">S</tspan> </g> </g>
 </text> 
</g>
 </g>
 </g>
 <g fill="#fff">
 <g fill="#fff">
 <path d=" M 2266.2229 -9.99756 h 19.99512 v 19.99512 h -19.99512 Z  " />
 </g>
 <g transform="translate(2272.47046,-3.41666)">
 <g fill="#000">
 <text style="stroke:none" transform="scale(1,-1) translate(3.75,0)" text-anchor="middle"  font-size="10"> 
<g fill="#000">
 <g stroke="none"> <tspan font-family="cmmi" font-size="10">A</tspan> </g> </g>
 </text> 
</g>
 </g>
 </g>
 <path d=" M 2001.89046 0.0 L 2263.62294 0.0  " fill="none"/>
 <g transform="translate(2263.62294,0.0)">
 <path d=" M 2.39996 0.0 C 1.39998 0.2 -0.4 0.59999 -1.59998 1.49997 C -0.59999 0.4 -0.59999 -0.4 -1.59998 -1.49997 C -0.4 -0.59999 1.39998 -0.2 2.39996 0.0 Z  " stroke="none"/>
  </g>
 <g transform="translate(2064.72803,6.03215)">
 <g fill="#000">
 <text style="stroke:none" transform="scale(1,-1) translate(69.22865,0)" text-anchor="middle"  font-size="10"> 
<g fill="#000">
 <g stroke="none"> <tspan font-family="cmmi" font-size="10">EAPol </tspan><tspan font-family="cmsy" font-size="10">− </tspan><tspan font-family="cmmi" font-size="10">key</tspan><tspan font-family="cmr" font-size="10">(</tspan><tspan font-family="cmmi" font-size="10">SNonce </tspan><tspan font-family="cmr" font-size="10">+ </tspan><tspan font-family="cmmi" font-size="10">MIC</tspan><tspan font-family="cmr" font-size="10">)</tspan> </g> </g>
 </text> 
</g>
 </g>
 </g>
 </g>
 
                                                                                           </g> 
</svg> 
